%YAML 1.1
%TAG !u! tag:unity3d.com,2011:
--- !u!78 &1
TagManager:
  serializedVersion: 2
  tags:
  - Bullet
  - Ant
  - FireAnt
  - Enemy
  - AntLink
  - AntBoss
  - Food
  layers:
  - Default
  - TransparentFX
  - Ignore Raycast
  - 
  - Water
  - UI
  - 
  - 
  - 
  - 
  - 
  - 
  - 
  - 
  - 
  - 
  - 
  - 
  - 
  - 
  - 
  - 
  - 
  - 
  - 
  - 
  - 
  - 
  - 
  - 
  - 
  - 
  m_SortingLayers:
  - name: Default
    uniqueID: 0
    locked: 0
  - name: background
    uniqueID: 2713861369
    locked: 0
  - name: background1
    uniqueID: 219432887
    locked: 0
  - name: food
    uniqueID: 4205504901
    locked: 0
  - name: enemy
    uniqueID: 2799667683
    locked: 0
